…
    ## The following object is masked from 'package:dplyr':
    ## 
    ##     collapse

``` r
theme_set(theme_minimal())
```

## Data wrangling and import using auk package

``` r
print(bcr_codes)
```

    ## # A tibble: 66 x 2
    ##    bcr_code bcr_name                      
    ##       <int> <chr>                         
    ##  1        1 Aleutian/Bering Sea Islands   
    ##  2        2 Western Alaska                
    ##  3        3 Arctic Plains And Mountains   
    ##  4        4 Northwestern Interior Forest  
    ##  5        5 Northern Pacific Rainforest   
    ##  6        6 Boreal Taiga Plains           
    ##  7        7 Taiga Shield And Hudson Plains
    ##  8        8 Boreal Softwood Shield        
    ##  9        9 Great Basin                   
    ## 10       10 Northern Rockies              
    ## # … with 56 more rows
…
